Análisis Descriptivo
…
# Paso 1: Agrupar los datos por "num_documento_cliente"
grupos = subset_1 %>% group_by(num_documento_cliente) %>%
# Paso 2: Contar la cantidad de "tipo_documento_cliente" distintos
  summarize(num_tipos_documento = n_distinct(tipo_documento_cliente))
# Paso 3: Filtrar aquellos casos con más de un "tipo_documento_cliente"
num_documentos_multiples_tipos = grupos %>% filter(num_tipos_documento > 1)
num_documentos_multiples_tipos

## # A tibble: 1,541 × 2
##    num_documento_cliente num_tipos_documento
##                    <dbl>               <int>
##  1               3.76e16                   2
##  2               3.92e16                   2
##  3               5.57e16                   2
##  4               5.77e16                   2
##  5               6.58e16                   2
##  6               6.67e16                   2
##  7               7.05e16                   2
##  8               7.32e16                   2
##  9               7.58e16                   2
## 10               8.11e16                   2
## # ℹ 1,531 more rows

Una vez identificados los clientes únicos, se presenta la
clasificación inicial de los mismos:

data_1A <- subset_1 %>% group_by(num_documento_cliente) %>% mutate(contador = row_number())
data_1A <- data_1A %>% filter(contador < 2)
data_1A = subset(data_1A, select = -contador)
print(data_1A)

## # A tibble: 10,000 × 2
## # Groups:   num_documento_cliente [10,000]
##    num_documento_cliente tipo_documento_cliente
##                    <dbl>                  <dbl>
##  1               3.31e18                      1
##  2               3.77e18                      1
##  3               3.37e18                      1
##  4               3.35e18                      1
##  5               2.46e18                      1
##  6               3.52e18                      1
##  7               4.67e18                      1
##  8               1.76e18                      1
##  9               3.22e18                      1
## 10               2.66e18                      1
## # ℹ 9,990 more rows
…
PocasVentas

## # A tibble: 23 × 2
##    fecha_compra num_total_compra
##    <date>                  <int>
##  1 2022-02-04                217
##  2 2022-02-25                215
##  3 2022-03-03                219
##  4 2022-03-16                220
##  5 2022-04-01                218
##  6 2022-04-03                217
##  7 2022-04-07                217
##  8 2022-04-16                220
##  9 2022-04-18                212
## 10 2022-04-20                220
## # ℹ 13 more rows
